{
    "suggestions": [
        {
            "value": "г Москва, ул Хабаровская",
            "unrestricted_value": "г Москва, ул Хабаровская",
            "data": {
                "postal_code": null,
                "country": "Россия",
                "region_fias_id": "0c5b2444-70a0-4932-980c-b4dc0d3f02b5",
                "region_kladr_id": "7700000000000",
                "region_with_type": "г Москва",
                "region_type": "г",
                "region_type_full": "город",
                "region": "Москва",
                "area_fias_id": null,
                "area_kladr_id": null,
                "area_with_type": null,
                "area_type": null,
                "area_type_full": null,
                "area": null,
                "city_fias_id": "0c5b2444-70a0-4932-980c-b4dc0d3f02b5",
                "city_kladr_id": "7700000000000",
                "city_with_type": "г Москва",
                "city_type": "г",
                "city_type_full": "город",
                "city": "Москва",
                "city_area": null,
                "city_district": null,
                "settlement_fias_id": null,
                "settlement_kladr_id": null,
                "settlement_with_type": null,
                "settlement_type": null,
                "settlement_type_full": null,
                "settlement": null,
                "street_fias_id": "32fcb102-2a50-44c9-a00e-806420f448ea",
                "street_kladr_id": "77000000000713400",
                "street_with_type": "ул Хабаровская",
                "street_type": "ул",
                "street_type_full": "улица",
                "street": "Хабаровская",
                "house_fias_id": null,
                "house_kladr_id": null,
                "house_type": null,
                "house_type_full": null,
                "house": null,
                "block_type": null,
                "block_type_full": null,
                "block": null,
                "flat_type": null,
                "flat_type_full": null,
                "flat": null,
                "flat_area": null,
                "square_meter_price": null,
                "flat_price": null,
                "postal_box": null,
                "fias_id": "32fcb102-2a50-44c9-a00e-806420f448ea",
                "fias_level": "7",
                "kladr_id": "77000000000713400",
                "capital_marker": "0",
                "okato": "45263564000",
                "oktmo": "45305000",
                "tax_office": "7718",
                "tax_office_legal": "7718",
                "timezone": null,
                "geo_lat": "55.3982194",
                "geo_lon": "85.9453217",
                "beltway_hit": null,
                "beltway_distance": null,
                "qc_geo": 2,
                "qc_complete": null,
                "qc_house": null,
                "unparsed_parts": null,
                "qc": null
            }
        }
    ]
}

